%!PS-Adobe-3.0 EPSF-3.0
%%Title: ./img/toy1.fig
%%Creator: fig2dev Version 3.2.6a
%%CreationDate: 2018-08-02 11:13:31
%%BoundingBox: 0 0 87 79
%Magnification: 1.0000
%%EndComments
%%BeginProlog
/$F2psDict 200 dict def
$F2psDict begin
$F2psDict /mtrx matrix put
/col-1 {0 setgray} bind def
/col0 {0.000 0.000 0.000 srgb} bind def
/col7 {1.000 1.000 1.000 srgb} bind def
/col32 {0.533 0.533 0.533 srgb} bind def
/col33 {1.000 0.647 0.000 srgb} bind def
/col34 {1.000 0.000 0.000 srgb} bind def

end

/cp {closepath} bind def
/ef {eofill} bind def
/gr {grestore} bind def
/gs {gsave} bind def
/sa {save} bind def
/rs {restore} bind def
/l {lineto} bind def
/m {moveto} bind def
/rm {rmoveto} bind def
/n {newpath} bind def
/s {stroke} bind def
/sh {show} bind def
/slc {setlinecap} bind def
/slj {setlinejoin} bind def
/slw {setlinewidth} bind def
/srgb {setrgbcolor} bind def
/rot {rotate} bind def
/sc {scale} bind def
/sd {setdash} bind def
/ff {findfont} bind def
/sf {setfont} bind def
/scf {scalefont} bind def
/sw {stringwidth} bind def
/tr {translate} bind def
/tnt {dup dup currentrgbcolor
  4 -2 roll dup 1 exch sub 3 -1 roll mul add
  4 -2 roll dup 1 exch sub 3 -1 roll mul add
  4 -2 roll dup 1 exch sub 3 -1 roll mul add srgb}
  bind def
/shd {dup dup currentrgbcolor 4 -2 roll mul 4 -2 roll mul
  4 -2 roll mul srgb} bind def
 /DrawEllipse {
	/endangle exch def
	/startangle exch def
	/yrad exch def
	/xrad exch def
	/y exch def
	/x exch def
	/savematrix mtrx currentmatrix def
	x y tr xrad yrad sc 0 0 1 startangle endangle arc
	closepath
	savematrix setmatrix
	} def

/$F2psBegin {$F2psDict begin /$F2psEnteredState save def} def
/$F2psEnd {$F2psEnteredState restore end} def

/pageheader {
save
newpath 0 79 moveto 0 0 lineto 87 0 lineto 87 79 lineto closepath clip newpath
-182.1 276.9 translate
1 -1 scale
$F2psBegin
10 setmiterlimit
0 slj 0 slc
 0.06000 0.06000 sc
} bind def
/pagefooter {
$F2psEnd
restore
} bind def
%%EndProlog
pageheader
%
% Fig objects follow
%
% 
% here starts figure with depth 60
% Polyline
0 slj
0 slc
0.000 slw
n 3450 3300 m 4450 3300 l 4450 3600 l 3450 3600 l
 cp gs col7 1.00 shd ef gr 
% here ends figure;
% 
% here starts figure with depth 50
% Polyline
0 slj
0 slc
15.000 slw
 [15 90] 90 sd
n 3450 3450 m
 4450 3450 l gs col0 s gr  [] 0 sd
% Polyline
 [15 90] 90 sd
n 3450 4050 m
 4450 4050 l gs col0 s gr  [] 0 sd
% Polyline
2 slj
30.000 slw
n 3950 3450 m 3950 3452 l 3950 3456 l 3950 3464 l 3950 3475 l 3950 3489 l
 3950 3506 l 3950 3525 l 3950 3546 l 3950 3568 l 3950 3592 l
 3950 3618 l 3950 3647 l 3950 3678 l 3950 3713 l 3950 3750 l
 3950 3787 l 3950 3822 l 3950 3853 l 3950 3882 l 3950 3908 l
 3950 3932 l 3950 3954 l 3950 3975 l 3950 3994 l 3950 4011 l
 3950 4025 l 3950 4036 l 3950 4044 l 3950 4048 l
 3950 4050 l gs col0 s gr 
% Polyline
0 slj
n 3935 3750 m 3965 3750 l gs col0 s gr
% Polyline
7.500 slw
gs  clippath
4457 4343 m 4457 4357 l 4314 4380 l 4314 4320 l cp
eoclip
n 3450 4350 m
 4450 4350 l gs col0 s gr gr

% arrowhead
n 4314 4380 m 4434 4350 l 4314 4320 l 4314 4380 l  cp gs 0.00 setgray ef gr  col0 s
% Polyline
n 3450 4350 m
 3450 4380 l gs col0 s gr 
% Polyline
n 3950 4350 m
 3950 4380 l gs col0 s gr 
/Times-Roman ff 450.00 scf sf
3050 3575 m
gs 1 -1 sc (a) col0 sh gr
/Times-Roman ff 450.00 scf sf
3050 4175 m
gs 1 -1 sc (b) col0 sh gr
/Times-Roman ff 300.00 scf sf
3450 4600 m
gs 1 -1 sc (0) dup sw pop 2 div neg 0 rm  col0 sh gr
/Times-Roman ff 300.00 scf sf
4450 4600 m
gs 1 -1 sc (time) dup sw pop neg 0 rm  col0 sh gr
% Ellipse
30.000 slw
n 3950 3450 45 45 0 360 DrawEllipse gs 0.00 setgray ef gr gs col0 s gr

% Ellipse
n 3950 4050 45 45 0 360 DrawEllipse gs 0.00 setgray ef gr gs col0 s gr

% Polyline
n 3950 3450 m
 3950 4050 l gs col33 s gr 
% here ends figure;
pagefooter
showpage
%%Trailer
%EOF
