#FIG 3.2  Produced by xfig version 3.2.5b
Landscape
Center
Inches
Letter
100.00
Single
-2
1200 2

0 32 #888888
0 33 #ffa500
0 34 #ff0000
4 0 0 50 -1 0 30 0.0000 4 135 120 3050 3575 a\001
2 1 2 2 0 7 50 -1 -1 6.000 0 0 7 0 0 2
           3450 3450 5450 3450
4 0 0 50 -1 0 30 0.0000 4 135 120 3050 4175 b\001
2 1 2 2 0 7 50 -1 -1 6.000 0 0 7 0 0 2
           3450 4050 5450 4050
4 0 0 50 -1 0 30 0.0000 4 135 120 3050 4775 c\001
2 1 2 2 0 7 50 -1 -1 6.000 0 0 7 0 0 2
           3450 4650 5450 4650
1 3 0 3 0 0 49 -1 20 0.000 1 0.0000 3950 3450 45 45 -6525 -2025 -6480 -2025
1 3 0 3 0 0 49 -1 20 0.000 1 0.0000 3950 4050 45 45 -6525 -2025 -6480 -2025
3 2 0 3 0 7 50 -1 -1 0.000 0 0 0 3
3950 3450 3950 3750 3950 4050
0.000 -1.000 0.000
2 1 0 3 0 7 50 -1 -1 0.000 0 0 -1 0 0 2
3950 3750 3950 3750.0
1 3 0 3 0 0 49 -1 20 0.000 1 0.0000 4450 4050 45 45 -6525 -2025 -6480 -2025
1 3 0 3 0 0 49 -1 20 0.000 1 0.0000 4450 4650 45 45 -6525 -2025 -6480 -2025
3 2 0 3 0 7 50 -1 -1 0.000 0 0 0 3
4450 4050 4450 4350 4450 4650
0.000 -1.000 0.000
2 1 0 3 0 7 50 -1 -1 0.000 0 0 -1 0 0 2
4450 4350 4450 4350.0
1 3 0 3 0 0 49 -1 20 0.000 1 0.0000 4950 3450 45 45 -6525 -2025 -6480 -2025
1 3 0 3 0 0 49 -1 20 0.000 1 0.0000 4950 4650 45 45 -6525 -2025 -6480 -2025
3 2 0 3 0 7 50 -1 -1 0.000 0 0 0 3
4950 3450 4950 4050 4950 4650
0.000 -1.000 0.000
2 1 0 3 0 7 50 -1 -1 0.000 0 0 -1 0 0 2
4950 4050 4950 4050.0
2 1 0 3 33 7 48 -1 -1 0.000 0 0 -1 0 0 8
3950 3450 3950 3450 3950 3450 3950 4050 4450 4050 4450 4650 4450 4650 4450 4650
2 1 0 3 34 7 48 -1 -1 0.000 0 0 -1 0 0 6
4950 3450 4950 3450 4950 3450 4950 4650 4950 4650 4950 4650
2 1 0 1 0 7 50 -1 -1 0.000 0 0 -1 1 0 2
1 1 1.00 60.00 120.00
3450 4950 5450 4950
2 1 0 1 0 7 50 -1 -1 0.000 0 0 -1 0 0 2
3450 4950 3450 4980
4 1 0 50 -1 0 20 0.0000 4 135 120 3450 5200 0\001
2 1 0 1 0 7 50 -1 -1 0.000 0 0 -1 0 0 2
3950 4950 3950 4980
4 1 0 50 -1 0 20 0.0000 4 135 120 3950 5200 1\001
2 1 0 1 0 7 50 -1 -1 0.000 0 0 -1 0 0 2
4450 4950 4450 4980
4 1 0 50 -1 0 20 0.0000 4 135 120 4450 5200 2\001
2 1 0 1 0 7 50 -1 -1 0.000 0 0 -1 0 0 2
4950 4950 4950 4980
4 2 0 50 -1 0 20 0.0000 4 135 120 5450 5200 time\001
2 2 0 0 0 7 60 -1 20 0.000 0 0 -1 0 0 5
3450 3300 5450 3300 5450 3600 3450 3600 3450 3300
